…
## Example

```{r}
library(datateachr)

Example1 <- add_year_since_built(2023)
Example1
```

```         
## # A tibble: 3,455 × 2
##    year_built year_since_built
##         <dbl>            <dbl>
##  1       1967               56
##  2       1970               53
##  3       1927               96
##  4       1959               64
##  5       1943               80
##  6       1952               71
##  7       1959               64
##  8       1971               52
##  9       1969               54
## 10       1972               51
## # ℹ 3,445 more rows
```
…
